"﻿""_ID_""";_MAIN_CATEGORY_;_CATEGORY_;_CATEGORY1_;_CATEGORY2_;_CATEGORY3_;_CATEGORY4_;_CATEGORY5_;_CATEGORY6_;BRAND;NAME;DESCRIPTION;IMAGE;_IMAGES_;Комплектация;Родина бренда;Страна производства;_Documentation_
15524063;Автосервисное оборудование;Автомобильные аксессуары;Аксессуары в салон автомобиля;Чехлы и накидки для автомобиля;Защитные чехлы на сидения;;;;JTC;Защитные нейлоновые чехлы на сиденье, рулевое колесо, рычаг 3шт JTC-AM99;Защитные нейлоновые чехлы на сиденье, рулевое колесо, рычаг 3шт JTC-AM99 - это комплект 3 в 1, состоящий из защитных накидок в салон автомобиля. Набор станет надежным помощником при проведении ремонтных или диагностических работ. Изделия изготовлены из плотного синтетического материала - нейлона. Чехлы предназначены для многоразового использования, прослужат долгий срок.;https://cdn.vseinstrumenti.ru/images/goods/avtogarazhnoe-oborudovanie/avtomobilnye-aksessuary/773703/560x504/52451007.jpg;https://cdn.vseinstrumenti.ru/images/goods/avtogarazhnoe-oborudovanie/avtomobilnye-aksessuary/773703/560x504/52451008.jpg|https://cdn.vseinstrumenti.ru/images/goods/avtogarazhnoe-oborudovanie/avtomobilnye-aksessuary/773703/560x504/52451009.jpg;Чехол на сиденье 1 шт|Чехол на руль 1 шт|Чехол на рычаг КПП 1 шт|Блистерная упаковка: 200/170/70 мм (Д/Ш/В);Тайвань;Тайвань;Сертификат дилера#http://cdn.vseinstrumenti.ru/img/certificates/662.jpg | Сертификаты соответствия#http://cdn.vseinstrumenti.ru/img/certificate_compliance/13559/00625-1.jpg | Сертификаты соответствия#http://cdn.vseinstrumenti.ru/img/certificate_compliance/13559/00625-2.jpg | Сертификаты соответствия#http://cdn.vseinstrumenti.ru/img/certificate_compliance/13559/00625-3.jpg | Сертификаты соответствия#http://cdn.vseinstrumenti.ru/img/certificate_compliance/13559/00625-4.jpg | Сертификаты соответствия#http://cdn.vseinstrumenti.ru/img/certificate_compliance/13559/00625-5.jpg | Сертификаты соответствия#http://cdn.vseinstrumenti.ru/img/certificate_compliance/13559/00625-6.jpg | Скачать всю документацию#http://www.vseinstrumenti.ru/docs_download/773703.html
15154401;Автосервисное оборудование;Автомобильные аксессуары;Экстерьер;Аксессуары для колес автомобиля;Автомобильные насосы;Автомобильные ручные насосы;;;Качок;Механический воздушный насос Качок Н30;Механический воздушный насос Качок Н30 - это простое в использовании устройство, которое дает возможность быстрой подкачки автомобильных, велосипедных и мотоциклетных шин. Данная модель оснащена двушкальным манометром высокой точности, диапазоны измерения от 0 до 8 атм и от 0 до 120 psi.;https://cdn.vseinstrumenti.ru/images/goods/avtogarazhnoe-oborudovanie/avtomobilnye-aksessuary/669369/560x504/52314906.jpg;https://cdn.vseinstrumenti.ru/images/goods/avtogarazhnoe-oborudovanie/avtomobilnye-aksessuary/669369/560x504/52314907.jpg|https://cdn.vseinstrumenti.ru/images/goods/avtogarazhnoe-oborudovanie/avtomobilnye-aksessuary/669369/560x504/52314908.jpg;Насос|Упаковка;Россия;Китай;Сертификаты соответствия#http://cdn.vseinstrumenti.ru/img/certificate_compliance/1098/1621.pdf | Скачать всю документацию#http://www.vseinstrumenti.ru/docs_download/669369.html
15520655;Автосервисное оборудование;Автомобильные аксессуары;Аксессуары для багажника;Аварийные принадлежности;Провода для прикуривания;;;;FUBAG;Кабель для зарядки аккумулятора SMART CABLE 320 FUBAG 68830;"Стартовые провода SMART CABLE 320 FUBAG 68830 применяются в экстренных ситуациях, когда АКБ транспортного средства разрядился, а запускать двигатель за счет буксировки нельзя. Провода имеют морозостойкую изоляцию.
Параметры:
Для АКБ транспортных средств — 12В/24В;
Максимальная нагрузка кабеля — 320 А;
Длина провода — 3 м;
Сечение кабеля — 16 мм2;
Морозостойкость изоляции — до -40°С.";https://cdn.vseinstrumenti.ru/images/goods/avtogarazhnoe-oborudovanie/avtomobilnye-aksessuary/736292/560x504/51435641.jpg;https://cdn.vseinstrumenti.ru/images/goods/avtogarazhnoe-oborudovanie/avtomobilnye-aksessuary/736292/560x504/51435642.jpg;;Германия;Германия — родина бренда</span> </li>;Сертификат дилера#http://cdn.vseinstrumenti.ru/img/certificates/580.jpg | Гарантийный талон#http:/img/warranty_cards/0_103_1574931065.jpg | Сертификаты соответствия#http://cdn.vseinstrumenti.ru/img/certificate_compliance/103/1504.pdf | Скачать всю документацию#http://www.vseinstrumenti.ru/docs_download/736292.html
